%YAML 1.1
%TAG !u! tag:unity3d.com,2011:
--- !u!114 &11400000
MonoBehaviour:
  m_ObjectHideFlags: 0
  m_PrefabParentObject: {fileID: 0}
  m_PrefabInternal: {fileID: 0}
  m_GameObject: {fileID: 0}
  m_Enabled: 1
  m_EditorHideFlags: 0
  m_Script: {fileID: 11500000, guid: 34404cb99b59bb543805a55e3c469d61, type: 3}
  m_Name: FireMage
  m_EditorClassIdentifier: 
  editorConfirmations: 1
  animations:
  - speedRatio: 1
    loop: 1
    frameToLoop: 0
    frameDatas:
    - sprite: {fileID: 21300000, guid: eeb79010ac2a34728996b32a9f0f3f19, type: 3}
      time: 0.08
      eventEnabled: 0
      eventName: 
    - sprite: {fileID: 21300002, guid: eeb79010ac2a34728996b32a9f0f3f19, type: 3}
      time: 0.08
      eventEnabled: 0
      eventName: 
    - sprite: {fileID: 21300004, guid: eeb79010ac2a34728996b32a9f0f3f19, type: 3}
      time: 0.08
      eventEnabled: 0
      eventName: 
    - sprite: {fileID: 21300006, guid: eeb79010ac2a34728996b32a9f0f3f19, type: 3}
      time: 0.08
      eventEnabled: 0
      eventName: 
    - sprite: {fileID: 21300008, guid: eeb79010ac2a34728996b32a9f0f3f19, type: 3}
      time: 0.08
      eventEnabled: 0
      eventName: 
    - sprite: {fileID: 21300010, guid: eeb79010ac2a34728996b32a9f0f3f19, type: 3}
      time: 0.08
      eventEnabled: 0
      eventName: 
    - sprite: {fileID: 21300012, guid: eeb79010ac2a34728996b32a9f0f3f19, type: 3}
      time: 0.08
      eventEnabled: 0
      eventName: 
    name: ATTACK
    selectedIndex: 2
    newFramesTime: 0.08
  - speedRatio: 1
    loop: 1
    frameToLoop: 0
    frameDatas:
    - sprite: {fileID: 21300000, guid: df6744a1accb9490e8c9004e0fb31e08, type: 3}
      time: 0.08
      eventEnabled: 0
      eventName: 
    - sprite: {fileID: 21300002, guid: df6744a1accb9490e8c9004e0fb31e08, type: 3}
      time: 0.08
      eventEnabled: 0
      eventName: 
    - sprite: {fileID: 21300004, guid: df6744a1accb9490e8c9004e0fb31e08, type: 3}
      time: 0.08
      eventEnabled: 0
      eventName: 
    - sprite: {fileID: 21300006, guid: df6744a1accb9490e8c9004e0fb31e08, type: 3}
      time: 0.08
      eventEnabled: 0
      eventName: 
    - sprite: {fileID: 21300008, guid: df6744a1accb9490e8c9004e0fb31e08, type: 3}
      time: 0.08
      eventEnabled: 0
      eventName: 
    name: DAMAGE
    selectedIndex: 4
    newFramesTime: 0.08
  - speedRatio: 1
    loop: 1
    frameToLoop: 0
    frameDatas:
    - sprite: {fileID: 21300000, guid: 79d5fa3b5aaa2451a8a88335e9cc4efc, type: 3}
      time: 0.08
      eventEnabled: 0
      eventName: 
    - sprite: {fileID: 21300002, guid: 79d5fa3b5aaa2451a8a88335e9cc4efc, type: 3}
      time: 0.08
      eventEnabled: 0
      eventName: 
    - sprite: {fileID: 21300004, guid: 79d5fa3b5aaa2451a8a88335e9cc4efc, type: 3}
      time: 0.08
      eventEnabled: 0
      eventName: 
    - sprite: {fileID: 21300006, guid: 79d5fa3b5aaa2451a8a88335e9cc4efc, type: 3}
      time: 0.08
      eventEnabled: 0
      eventName: 
    - sprite: {fileID: 21300008, guid: 79d5fa3b5aaa2451a8a88335e9cc4efc, type: 3}
      time: 0.08
      eventEnabled: 0
      eventName: 
    - sprite: {fileID: 21300010, guid: 79d5fa3b5aaa2451a8a88335e9cc4efc, type: 3}
      time: 0.08
      eventEnabled: 0
      eventName: 
    - sprite: {fileID: 21300012, guid: 79d5fa3b5aaa2451a8a88335e9cc4efc, type: 3}
      time: 0.08
      eventEnabled: 0
      eventName: 
    - sprite: {fileID: 21300014, guid: 79d5fa3b5aaa2451a8a88335e9cc4efc, type: 3}
      time: 0.08
      eventEnabled: 0
      eventName: 
    name: IDLE
    selectedIndex: 7
    newFramesTime: 0.08
  - speedRatio: 1
    loop: 1
    frameToLoop: 0
    frameDatas:
    - sprite: {fileID: 21300000, guid: da623cb8b4b4748e88d21b1a847a2e9b, type: 3}
      time: 0.08
      eventEnabled: 0
      eventName: 
    - sprite: {fileID: 21300002, guid: da623cb8b4b4748e88d21b1a847a2e9b, type: 3}
      time: 0.08
      eventEnabled: 0
      eventName: 
    - sprite: {fileID: 21300004, guid: da623cb8b4b4748e88d21b1a847a2e9b, type: 3}
      time: 0.08
      eventEnabled: 0
      eventName: 
    - sprite: {fileID: 21300006, guid: da623cb8b4b4748e88d21b1a847a2e9b, type: 3}
      time: 0.08
      eventEnabled: 0
      eventName: 
    - sprite: {fileID: 21300008, guid: da623cb8b4b4748e88d21b1a847a2e9b, type: 3}
      time: 0.08
      eventEnabled: 0
      eventName: 
    - sprite: {fileID: 21300010, guid: da623cb8b4b4748e88d21b1a847a2e9b, type: 3}
      time: 0.08
      eventEnabled: 0
      eventName: 
    - sprite: {fileID: 21300012, guid: da623cb8b4b4748e88d21b1a847a2e9b, type: 3}
      time: 0.08
      eventEnabled: 0
      eventName: 
    - sprite: {fileID: 21300014, guid: da623cb8b4b4748e88d21b1a847a2e9b, type: 3}
      time: 0.08
      eventEnabled: 0
      eventName: 
    - sprite: {fileID: 21300016, guid: da623cb8b4b4748e88d21b1a847a2e9b, type: 3}
      time: 0.08
      eventEnabled: 0
      eventName: 
    name: IDLE_WEAK
    selectedIndex: 8
    newFramesTime: 0.08
  - speedRatio: 1
    loop: 1
    frameToLoop: 0
    frameDatas:
    - sprite: {fileID: 21300000, guid: 7d306c5d2e86f4faf827de05982c3e7f, type: 3}
      time: 0.08
      eventEnabled: 0
      eventName: 
    - sprite: {fileID: 21300002, guid: 7d306c5d2e86f4faf827de05982c3e7f, type: 3}
      time: 0.08
      eventEnabled: 0
      eventName: 
    - sprite: {fileID: 21300004, guid: 7d306c5d2e86f4faf827de05982c3e7f, type: 3}
      time: 0.08
      eventEnabled: 0
      eventName: 
    - sprite: {fileID: 21300006, guid: 7d306c5d2e86f4faf827de05982c3e7f, type: 3}
      time: 0.08
      eventEnabled: 0
      eventName: 
    - sprite: {fileID: 21300008, guid: 7d306c5d2e86f4faf827de05982c3e7f, type: 3}
      time: 0.08
      eventEnabled: 0
      eventName: 
    - sprite: {fileID: 21300010, guid: 7d306c5d2e86f4faf827de05982c3e7f, type: 3}
      time: 0.08
      eventEnabled: 0
      eventName: 
    - sprite: {fileID: 21300012, guid: 7d306c5d2e86f4faf827de05982c3e7f, type: 3}
      time: 0.08
      eventEnabled: 0
      eventName: 
    - sprite: {fileID: 21300014, guid: 7d306c5d2e86f4faf827de05982c3e7f, type: 3}
      time: 0.08
      eventEnabled: 0
      eventName: 
    name: WALK
    selectedIndex: 7
    newFramesTime: 0.08
  - speedRatio: 1
    loop: 0
    frameToLoop: 0
    frameDatas:
    - sprite: {fileID: 21300000, guid: b1bc96e95d34f4577bdf116a9ade533a, type: 3}
      time: 0.08
      eventEnabled: 0
      eventName: 
    - sprite: {fileID: 21300002, guid: b1bc96e95d34f4577bdf116a9ade533a, type: 3}
      time: 0.08
      eventEnabled: 0
      eventName: 
    - sprite: {fileID: 21300004, guid: b1bc96e95d34f4577bdf116a9ade533a, type: 3}
      time: 0.08
      eventEnabled: 0
      eventName: 
    - sprite: {fileID: 21300006, guid: b1bc96e95d34f4577bdf116a9ade533a, type: 3}
      time: 0.08
      eventEnabled: 0
      eventName: 
    - sprite: {fileID: 21300008, guid: b1bc96e95d34f4577bdf116a9ade533a, type: 3}
      time: 0.08
      eventEnabled: 0
      eventName: 
    - sprite: {fileID: 21300010, guid: b1bc96e95d34f4577bdf116a9ade533a, type: 3}
      time: 0.08
      eventEnabled: 0
      eventName: 
    - sprite: {fileID: 21300012, guid: b1bc96e95d34f4577bdf116a9ade533a, type: 3}
      time: 0.08
      eventEnabled: 0
      eventName: 
    - sprite: {fileID: 21300014, guid: b1bc96e95d34f4577bdf116a9ade533a, type: 3}
      time: 0.08
      eventEnabled: 0
      eventName: 
    - sprite: {fileID: 21300016, guid: b1bc96e95d34f4577bdf116a9ade533a, type: 3}
      time: 0.08
      eventEnabled: 0
      eventName: 
    name: DEATH
    selectedIndex: 8
    newFramesTime: 0.08
