%YAML 1.1
%TAG !u! tag:unity3d.com,2011:
--- !u!114 &11400000
MonoBehaviour:
  m_ObjectHideFlags: 0
  m_PrefabParentObject: {fileID: 0}
  m_PrefabInternal: {fileID: 0}
  m_GameObject: {fileID: 0}
  m_Enabled: 1
  m_EditorHideFlags: 0
  m_Script: {fileID: 11500000, guid: 34404cb99b59bb543805a55e3c469d61, type: 3}
  m_Name: CurseBat
  m_EditorClassIdentifier: 
  editorConfirmations: 1
  animations:
  - speedRatio: 1
    loop: 1
    frameToLoop: 0
    frameDatas:
    - sprite: {fileID: 21300000, guid: 6797d6a04426b40f38bc802bac793010, type: 3}
      time: 0.08
      eventEnabled: 0
      eventName: 
    - sprite: {fileID: 21300002, guid: 6797d6a04426b40f38bc802bac793010, type: 3}
      time: 0.08
      eventEnabled: 0
      eventName: 
    - sprite: {fileID: 21300004, guid: 6797d6a04426b40f38bc802bac793010, type: 3}
      time: 0.08
      eventEnabled: 0
      eventName: 
    - sprite: {fileID: 21300006, guid: 6797d6a04426b40f38bc802bac793010, type: 3}
      time: 0.08
      eventEnabled: 0
      eventName: 
    - sprite: {fileID: 21300008, guid: 6797d6a04426b40f38bc802bac793010, type: 3}
      time: 0.08
      eventEnabled: 0
      eventName: 
    - sprite: {fileID: 21300010, guid: 6797d6a04426b40f38bc802bac793010, type: 3}
      time: 0.08
      eventEnabled: 0
      eventName: 
    - sprite: {fileID: 21300012, guid: 6797d6a04426b40f38bc802bac793010, type: 3}
      time: 0.08
      eventEnabled: 0
      eventName: 
    - sprite: {fileID: 21300014, guid: 6797d6a04426b40f38bc802bac793010, type: 3}
      time: 0.08
      eventEnabled: 0
      eventName: 
    name: IDLE
    selectedIndex: 7
    newFramesTime: 0.08
