%YAML 1.1
%TAG !u! tag:unity3d.com,2011:
--- !u!114 &11400000
MonoBehaviour:
  m_ObjectHideFlags: 0
  m_PrefabParentObject: {fileID: 0}
  m_PrefabInternal: {fileID: 0}
  m_GameObject: {fileID: 0}
  m_Enabled: 1
  m_EditorHideFlags: 0
  m_Script: {fileID: 11500000, guid: 89083bfe7539ec746ac0c1343527a845, type: 3}
  m_Name: ResourceDatabase
  m_EditorClassIdentifier: 
  cards:
  - Id: 0
    name: Gold
    portrait: 
    animationAsset: 
    cardType: 3
    cost: 0
    levelTree: []
    abilityId: 
    spawnProbability: 1
    attackEffect: 
    prefab: 
    description: 
    damageInfo:
      delay: 0
      amount: 0
      element: 0
      range: 0
  - Id: 0
    name: Gem
    portrait: 
    animationAsset: 
    cardType: 3
    cost: 0
    levelTree: []
    abilityId: 
    spawnProbability: 1
    attackEffect: 
    prefab: 
    description: 
    damageInfo:
      delay: 0
      amount: 0
      element: 0
      range: 0
