%YAML 1.1
%TAG !u! tag:unity3d.com,2011:
--- !u!114 &11400000
MonoBehaviour:
  m_ObjectHideFlags: 0
  m_PrefabParentObject: {fileID: 0}
  m_PrefabInternal: {fileID: 0}
  m_GameObject: {fileID: 0}
  m_Enabled: 1
  m_EditorHideFlags: 0
  m_Script: {fileID: 11500000, guid: 999c8df3a7dc2c7448c8c3d8e790ca87, type: 3}
  m_Name: numbers_6x8
  m_EditorClassIdentifier: 
  letterSprites:
  - {fileID: 21300000, guid: d5e2d7ebd5f39184eadcac4d17621f83, type: 3}
  - {fileID: 21300002, guid: d5e2d7ebd5f39184eadcac4d17621f83, type: 3}
  - {fileID: 21300004, guid: d5e2d7ebd5f39184eadcac4d17621f83, type: 3}
  - {fileID: 21300006, guid: d5e2d7ebd5f39184eadcac4d17621f83, type: 3}
  - {fileID: 21300008, guid: d5e2d7ebd5f39184eadcac4d17621f83, type: 3}
  - {fileID: 21300010, guid: d5e2d7ebd5f39184eadcac4d17621f83, type: 3}
  - {fileID: 21300012, guid: d5e2d7ebd5f39184eadcac4d17621f83, type: 3}
  - {fileID: 21300014, guid: d5e2d7ebd5f39184eadcac4d17621f83, type: 3}
  - {fileID: 21300016, guid: d5e2d7ebd5f39184eadcac4d17621f83, type: 3}
  - {fileID: 21300018, guid: d5e2d7ebd5f39184eadcac4d17621f83, type: 3}
  - {fileID: 21300020, guid: d5e2d7ebd5f39184eadcac4d17621f83, type: 3}
  - {fileID: 21300022, guid: d5e2d7ebd5f39184eadcac4d17621f83, type: 3}
  letterCode: 0123456789+%
