{
	"dialogue": [
		"<Action>[INVOKE],SET_START_STATE,TUTORIAL_B", // sets dialogue to bottom
		"<Action>[WAIT],TUTORIAL_COMPLETE",
		"Hey Goregous, I'm Bonny!",
		"I'm here to teach you the basics of MONSTER CONTROL.",
		"Those nasty heroes locked up all of our best Monsters!",
		"We bartered some treasure so we could take one of our best back.",
		"I think you should choose who gets to come home!",
		"<Continue>Choose wisely",
		"<Action>[INVOKE],SET_STATE,TUTORIAL_B", // starter card selection
		"<Action>[WAIT],TUTORIAL_COMPLETE",
		"Great choice! The heroes will regret giving this Monster back to us.",
		"<Action>[INVOKE],SET_STATE,TUTORIAL_B", // sets dialogue to top
		"<Action>[WAIT],TUTORIAL_COMPLETE",
		"<Action>[INVOKE],SET_STATE,START_GAME", // starts game.. may want to switch formation json depending starter card picked
		"<Action>[WAIT],LEVEL_START",
		"<Action>[INVOKE],SET_STATE,TUTORIAL_B", // points to benched monsters
		"These are Benched monsters",
		"<Action>[WAIT],TUTORIAL_COMPLETE",
		"<Action>[INVOKE],SET_STATE,TUTORIAL_B", // points to your active (in hand)
		"This is your active monster, you can tell because it's card is purple!",
		"<Action>[WAIT],TUTORIAL_COMPLETE",
		"<Action>[INVOKE],SET_STATE,TUTORIAL_B", // points to you active monster (on field)
		"Your active monster protects the castle from invaders",
		"<Action>[WAIT],TUTORIAL_COMPLETE",
		"<Action>[INVOKE],SET_STATE,TUTORIAL_B", // points to monster ability
		"Here is your monsters ability",
		"<Action>[WAIT],TUTORIAL_COMPLETE",
		"Using abilities is key to winning battles, so don't forget about them!",
		"<Continue>Great heroes are coming, now let's check out what your newly free'd monster can do!",
		"<Action>[INVOKE],SET_STATE,GRID_UPDATE",
		"<Action>[WAIT],ENEMY_TURN_END",
		"<Action>[INVOKE],SET_STATE,TUTORIAL_B",// points to the ability while allowing you to use it
		"<Continue>Let's start by using your monsters ability",
		"<Action>[WAIT],TUTORIAL_COMPLETE", // make tutorial wait for an ability use event
		"<Action>[INVOKE],SET_STATE,GRID_UPDATE",
		"<Continue>BOOM!! What a show! You can thank Coda for that one!",
		"<Action>[WAIT],ENEMY_TURN_END",
		"<Continue>I'm pretty confident you've got it from here friend! Good Luck!",
		"<Action>[WAIT],LEVEL_COMPLETE",
		"Nicely done friend ! You're going to fit in quite well around here !"
	]
}